[
  "horse",
  "door",
  "song",
  "trip",
  "backbone",
  "bomb",
  "round",
  "treasure",
  "garbage",
  "park",
  "pirate",
  "ski",
  "state",
  "whistle",
  "palace",
  "baseball",
  "coal",
  "queen",
  "dominoes",
  "photograph",
  "computer",
  "hockey",
  "aircraft",
  "hot dog",
  "salt and pepper",
  "key",
  "iPad",
  "whisk",
  "frog",
  "lawnmower",
  "mattress",
  "pinwheel",
  "cake",
  "circus",
  "battery",
  "mailman",
  "cowboy",
  "password",
  "bicycle",
  "skate",
  "electricity",
  "lightsaber",
  "thief",
  "teapot",
  "deep",
  "spring",
  "nature",
  "shallow",
  "toast",
  "outside",
  "America",
  "roller",
  "blading",
  "gingerbread man",
  "bowtie",
  "half",
  "spare",
  "wax",
  "light bulb",
  "platypus",
  "music"
]